Project.utf8.md
…
train_NZV <- nearZeroVar(train1)
train2 <- train1[, -train_NZV]
test2 <- test1[, -train_NZV]
check2<-check1[,-train_NZV]

na_col    <- sapply(train2, function(x) mean(is.na(x)))
train3 <- train2[, na_col<0.95]
test3 <- test2[, na_col<0.95]
check3 <- check2[, na_col[1:99]<0.95]

#data visulization
skimmed <- skim_to_wide(train3)
skimmed

## # A tibble: 53 x 16
##    type  variable missing complete n     n_unique top_counts ordered mean 
##    <chr> <chr>    <chr>   <chr>    <chr> <chr>    <chr>      <chr>   <chr>
##  1 fact~ classe   0       13737    13737 5        A: 3906, ~ FALSE   <NA> 
##  2 inte~ accel_a~ 0       13737    13737 <NA>     <NA>       <NA>    " -5~
##  3 inte~ accel_a~ 0       13737    13737 <NA>     <NA>       <NA>    "  3~
##  4 inte~ accel_a~ 0       13737    13737 <NA>     <NA>       <NA>    " -7~
##  5 inte~ accel_b~ 0       13737    13737 <NA>     <NA>       <NA>    "  -~
##  6 inte~ accel_b~ 0       13737    13737 <NA>     <NA>       <NA>    "  3~
##  7 inte~ accel_b~ 0       13737    13737 <NA>     <NA>       <NA>    " -7~
##  8 inte~ accel_d~ 0       13737    13737 <NA>     <NA>       <NA>    " -2~
##  9 inte~ accel_d~ 0       13737    13737 <NA>     <NA>       <NA>    "  5~
## 10 inte~ accel_d~ 0       13737    13737 <NA>     <NA>       <NA>    " -3~
## # ... with 43 more rows, and 7 more variables: sd <chr>, p0 <chr>,
## #   p25 <chr>, p50 <chr>, p75 <chr>, p100 <chr>, hist <chr>
…
